…
# read in the data from the text file
raw_text <- read_delim("sents_BNCbaby.txt", col_names = FALSE, delim = "\n")

# the raw data 
raw_text
```

    ## # A tibble: 332,938 x 1
    ##                                                                             X1
    ##                                                                          <chr>
    ##  1 "1\tLatest corporate unbundler reveals laid-back approach : Roland Franklin
    ##  2                                                          "2\tBy FRANK KANE"
    ##  3 "3\tIT SEEMS that Roland Franklin , the latest unbundler to appear in the U
    ##  4     "4\tHe has not properly investigated the target 's dining facilities ."
    ##  5 "5\tThe 63-year-old head of Pembridge Investments , through which the bid i
    ##  6 "6\tIf he had taken his own rule seriously , he would have found out that D
    ##  7 "7\tThere are other things he has , on his own admission , not fully invest
    ##  8 "8\tWhen the bid was launched last week , Mr Franklin faced some criticism 
    ##  9                                  "9\tHe regards the charges as unfounded ."
    ## 10                                           "10\tOn property , he is blunt ."
    ## # ... with 332,928 more rows
…
